<?xml version="1.0" encoding="UTF-8" standalone="no"?>
<!-- Created with Inkscape (http://www.inkscape.org/) -->

<svg
   xmlns:dc="http://purl.org/dc/elements/1.1/"
   xmlns:cc="http://creativecommons.org/ns#"
   xmlns:rdf="http://www.w3.org/1999/02/22-rdf-syntax-ns#"
   xmlns:svg="http://www.w3.org/2000/svg"
   xmlns="http://www.w3.org/2000/svg"
   xmlns:sodipodi="http://sodipodi.sourceforge.net/DTD/sodipodi-0.dtd"
   xmlns:inkscape="http://www.inkscape.org/namespaces/inkscape"
   width="210mm"
   height="297mm"
   viewBox="0 0 744.09448819 1052.3622047"
   id="svg2"
   version="1.1"
   inkscape:version="0.91 r13725"
   sodipodi:docname="code_example.svg">
  <defs
     id="defs4" />
  <sodipodi:namedview
     id="base"
     pagecolor="#ffffff"
     bordercolor="#666666"
     borderopacity="1.0"
     inkscape:pageopacity="0.0"
     inkscape:pageshadow="2"
     inkscape:zoom="2.1466468"
     inkscape:cx="603.27522"
     inkscape:cy="806.282"
     inkscape:document-units="px"
     inkscape:current-layer="layer1"
     showgrid="false"
     inkscape:window-width="1920"
     inkscape:window-height="1025"
     inkscape:window-x="1280"
     inkscape:window-y="27"
     inkscape:window-maximized="1" />
  <metadata
     id="metadata7">
    <rdf:RDF>
      <cc:Work
         rdf:about="">
        <dc:format>image/svg+xml</dc:format>
        <dc:type
           rdf:resource="http://purl.org/dc/dcmitype/StillImage" />
        <dc:title />
      </cc:Work>
    </rdf:RDF>
  </metadata>
  <g
     inkscape:label="Layer 1"
     inkscape:groupmode="layer"
     id="layer1">
    <g
       id="g4835"
       style="opacity:0.3">
      <g
         transform="matrix(0.99560476,-0.09365449,0.09365449,0.99560476,-33.105499,19.922133)"
         id="g4819"
         style="">
        <rect
           style="opacity:1;fill:#ff8080;fill-opacity:1;stroke:none;stroke-width:3.54330707;stroke-miterlimit:4;stroke-dasharray:none;stroke-dashoffset:0;stroke-opacity:1"
           id="rect4357-9"
           width="83.411255"
           height="14.043731"
           x="416.03119"
           y="-191.55103"
           transform="matrix(0.8796283,0.4756617,0.4756617,-0.8796283,0,0)" />
        <path
           sodipodi:type="star"
           style="opacity:1;fill:#ff8080;fill-opacity:1;stroke:none;stroke-width:3.54330707;stroke-miterlimit:4;stroke-dasharray:none;stroke-dashoffset:0;stroke-opacity:1"
           id="path4359-8"
           sodipodi:sides="3"
           sodipodi:cx="582.54718"
           sodipodi:cy="265.70453"
           sodipodi:r1="60.754993"
           sodipodi:r2="30.377499"
           sodipodi:arg1="2.0943951"
           sodipodi:arg2="3.1415927"
           inkscape:flatsided="true"
           inkscape:rounded="0.07"
           inkscape:randomized="0"
           d="m 552.16968,318.3199 c -6.37927,-3.68308 -6.37927,-101.54766 0,-105.23074 6.37928,-3.68307 91.13249,45.24922 91.13249,52.61537 0,7.36615 -84.75321,56.29844 -91.13249,52.61537 z"
           transform="matrix(0.42732501,0.23107731,0.23107731,-0.42732501,36.996029,376.77195)"
           inkscape:transform-center-x="-15.188749" />
      </g>
      <rect
         transform="matrix(0.999965,-0.00836618,-0.00769633,-0.99997038,0,0)"
         y="-371.00327"
         x="104.54613"
         height="30.767363"
         width="175.27173"
         id="rect4357-9-4-4-9"
         style="opacity:1;fill:#ff8080;fill-opacity:1;stroke:none;stroke-width:3.54330707;stroke-miterlimit:4;stroke-dasharray:none;stroke-dashoffset:0;stroke-opacity:1" />
    </g>
    <g
       id="g4841"
       style="opacity:0.3">
      <g
         id="g4688"
         style="">
        <rect
           style="opacity:1;fill:#ff8080;fill-opacity:1;stroke:none;stroke-width:3.54330707;stroke-miterlimit:4;stroke-dasharray:none;stroke-dashoffset:0;stroke-opacity:1"
           id="rect4357"
           width="83.411255"
           height="14.043731"
           x="103.63202"
           y="386.16031"
           transform="matrix(0.8796283,-0.4756617,0.4756617,0.8796283,0,0)" />
        <path
           sodipodi:type="star"
           style="opacity:1;fill:#ff8080;fill-opacity:1;stroke:none;stroke-width:3.54330707;stroke-miterlimit:4;stroke-dasharray:none;stroke-dashoffset:0;stroke-opacity:1"
           id="path4359"
           sodipodi:sides="3"
           sodipodi:cx="582.54718"
           sodipodi:cy="265.70453"
           sodipodi:r1="60.754993"
           sodipodi:r2="30.377499"
           sodipodi:arg1="2.0943951"
           sodipodi:arg2="3.1415927"
           inkscape:flatsided="true"
           inkscape:rounded="0.07"
           inkscape:randomized="0"
           d="m 552.16968,318.3199 c -6.37927,-3.68308 -6.37927,-101.54766 0,-105.23074 6.37928,-3.68307 91.13249,45.24922 91.13249,52.61537 0,7.36615 -84.75321,56.29844 -91.13249,52.61537 z"
           inkscape:transform-center-x="-15.188749"
           transform="matrix(0.42732501,-0.23107731,0.23107731,0.42732501,36.996033,279.99563)" />
      </g>
      <rect
         transform="matrix(0.999965,-0.00836618,-0.00769633,-0.99997038,0,0)"
         y="-315.99689"
         x="104.96964"
         height="30.767363"
         width="175.27173"
         id="rect4357-9-4-4"
         style="opacity:1;fill:#ff8080;fill-opacity:1;stroke:none;stroke-width:3.54330707;stroke-miterlimit:4;stroke-dasharray:none;stroke-dashoffset:0;stroke-opacity:1" />
    </g>
    <flowRoot
       xml:space="preserve"
       id="flowRoot4136"
       style="fill:black;stroke:none;stroke-opacity:1;stroke-width:1px;stroke-linejoin:miter;stroke-linecap:butt;fill-opacity:1;font-family:'ALM Fixed';font-style:normal;font-weight:normal;font-size:40px;line-height:125%;letter-spacing:0px;word-spacing:0px;-inkscape-font-specification:'ALM Fixed';font-stretch:normal;font-variant:normal;"><flowRegion
         id="flowRegion4138"><rect
           id="rect4140"
           width="343.39624"
           height="248.78706"
           x="36.792454"
           y="50.205872"
           style="-inkscape-font-specification:'ALM Fixed';font-family:'ALM Fixed';font-weight:normal;font-style:normal;font-stretch:normal;font-variant:normal;" /></flowRegion><flowPara
         id="flowPara4142" /></flowRoot>    <flowRoot
       xml:space="preserve"
       id="flowRoot4144"
       style="font-style:normal;font-variant:normal;font-weight:normal;font-stretch:normal;font-size:40px;line-height:125%;font-family:'Liberation Mono';-inkscape-font-specification:'Liberation Mono';letter-spacing:0px;word-spacing:0px;fill:#000000;fill-opacity:1;stroke:none;stroke-width:1px;stroke-linecap:butt;stroke-linejoin:miter;stroke-opacity:1"><flowRegion
         id="flowRegion4146"><rect
           id="rect4148"
           width="526.48248"
           height="412.60104"
           x="41.172508"
           y="45.825817"
           style="font-style:normal;font-variant:normal;font-weight:normal;font-stretch:normal;font-family:'Liberation Mono';-inkscape-font-specification:'Liberation Mono'" /></flowRegion><flowPara
         id="flowPara4150"
         style="font-size:15px"><flowSpan
   style="fill:#0000ff"
   id="flowSpan4198">int</flowSpan> kernel1(<flowSpan
   style="fill:#0000ff"
   id="flowSpan4200">int</flowSpan> param1, <flowSpan
   style="fill:#0000ff"
   id="flowSpan4202">int</flowSpan> param2, <flowSpan
   style="fill:#0000ff"
   id="flowSpan4204">void*</flowSpan> data);</flowPara><flowPara
         style="font-size:15px"
         id="flowPara4174" /><flowPara
         style="font-size:15px"
         id="flowPara4152" /><flowPara
         style="font-size:15px"
         id="flowPara4176" /><flowPara
         style="font-size:15px"
         id="flowPara4154"><flowSpan
   style="fill:#0000ff"
   id="flowSpan4212">int</flowSpan> kernel2(<flowSpan
   style="fill:#0000ff"
   id="flowSpan4206">int</flowSpan> paramA, <flowSpan
   style="fill:#0000ff"
   id="flowSpan4208">int</flowSpan> paramB, <flowSpan
   style="fill:#0000ff"
   id="flowSpan4210">void*</flowSpan> data);</flowPara><flowPara
         style="font-size:15px"
         id="flowPara4156" /><flowPara
         style="font-size:15px"
         id="flowPara4158" /><flowPara
         style="font-size:15px"
         id="flowPara4178" /><flowPara
         style="font-size:15px"
         id="flowPara4160"><flowSpan
   style="fill:#0000ff"
   id="flowSpan4214">int</flowSpan> main( )</flowPara><flowPara
         style="font-size:15px"
         id="flowPara4162">{</flowPara><flowPara
         style="font-size:15px"
         id="flowPara4172">    data = work_to_do();</flowPara><flowPara
         style="font-size:15px"
         id="flowPara4166"><flowSpan
   style="font-weight:bold"
   id="flowSpan4216">    while</flowSpan>(data != <flowSpan
   style="fill:#0000ff"
   id="flowSpan4218">nullptr</flowSpan>)</flowPara><flowPara
         style="font-size:15px"
         id="flowPara4168">    {</flowPara><flowPara
         style="font-size:15px"
         id="flowPara4618">        kernel1(<flowSpan
   style="fill:#ff6600"
   id="flowSpan4220">1</flowSpan>,<flowSpan
   style="fill:#ff6600"
   id="flowSpan4222">2</flowSpan>,data);</flowPara><flowPara
         style="font-size:15px"
         id="flowPara4610" /><flowPara
         style="font-size:15px"
         id="flowPara4686" /><flowPara
         style="font-size:15px"
         id="flowPara4614">        kernel2(<flowSpan
   style="fill:#ff6600"
   id="flowSpan4224">3</flowSpan>,<flowSpan
   style="fill:#ff6600"
   id="flowSpan4226">4</flowSpan>,data);</flowPara><flowPara
         style="font-size:15px"
         id="flowPara4188" /><flowPara
         style="font-size:15px"
         id="flowPara4190">        data = work_to_do();</flowPara><flowPara
         style="font-size:15px"
         id="flowPara4192">    }</flowPara><flowPara
         style="font-size:15px"
         id="flowPara4194">}</flowPara><flowPara
         style="font-size:15px"
         id="flowPara4196" /><flowPara
         style="font-size:15px"
         id="flowPara4180" /><flowPara
         style="font-size:15px"
         id="flowPara4170" /><flowPara
         style="font-size:15px"
         id="flowPara4164" /></flowRoot>    <rect
       style="opacity:1;fill:#7dfb84;fill-opacity:1;stroke:none;stroke-width:3.54330707;stroke-miterlimit:4;stroke-dasharray:none;stroke-dashoffset:0;stroke-opacity:1"
       id="rect4241"
       width="199.73045"
       height="7.8840971"
       x="150.67383"
       y="65.974068" />
    <rect
       style="opacity:1;fill:#7dfb84;fill-opacity:1;stroke:none;stroke-width:3.54330707;stroke-miterlimit:4;stroke-dasharray:none;stroke-dashoffset:0;stroke-opacity:1"
       id="rect4241-7"
       width="199.73045"
       height="7.8840971"
       x="150.5957"
       y="141.13713" />
    <text
       xml:space="preserve"
       style="font-style:normal;font-weight:normal;font-size:40px;line-height:125%;font-family:sans-serif;letter-spacing:0px;word-spacing:0px;fill:#000000;fill-opacity:1;stroke:none;stroke-width:1px;stroke-linecap:butt;stroke-linejoin:miter;stroke-opacity:1"
       x="162.59106"
       y="87.874336"
       id="text4315"
       sodipodi:linespacing="125%"><tspan
         sodipodi:role="line"
         id="tspan4317"
         x="162.59106"
         y="87.874336"
         style="font-size:15px">Software knobs kernel1</tspan></text>
    <text
       xml:space="preserve"
       style="font-style:normal;font-weight:normal;font-size:40px;line-height:125%;font-family:sans-serif;letter-spacing:0px;word-spacing:0px;fill:#000000;fill-opacity:1;stroke:none;stroke-width:1px;stroke-linecap:butt;stroke-linejoin:miter;stroke-opacity:1"
       x="162.63013"
       y="163.83026"
       id="text4315-4"
       sodipodi:linespacing="125%"><tspan
         sodipodi:role="line"
         id="tspan4317-1"
         x="162.63013"
         y="163.83026"
         style="font-size:15px">Software knobs kernel2</tspan></text>
    <text
       xml:space="preserve"
       style="font-style:normal;font-weight:normal;font-size:40px;line-height:125%;font-family:sans-serif;text-align:center;letter-spacing:0px;word-spacing:0px;text-anchor:middle;fill:#000000;fill-opacity:1;stroke:none;stroke-width:1px;stroke-linecap:butt;stroke-linejoin:miter;stroke-opacity:1"
       x="430.14429"
       y="228.79126"
       id="text4315-6"
       sodipodi:linespacing="125%"><tspan
         sodipodi:role="line"
         id="tspan4317-2"
         x="430.14429"
         y="228.79126"
         style="font-size:15px;text-align:center;text-anchor:middle">Block of code</tspan><tspan
         sodipodi:role="line"
         x="430.14429"
         y="247.54128"
         style="font-size:15px;text-align:center;text-anchor:middle"
         id="tspan4413">&quot;kernel1&quot;</tspan></text>
    <rect
       style="opacity:1;fill:#ffeeaa;fill-opacity:1;stroke:none;stroke-width:3.54330707;stroke-miterlimit:4;stroke-dasharray:none;stroke-dashoffset:0;stroke-opacity:1"
       id="rect4509"
       width="155.92992"
       height="145.87039"
       x="484.31805"
       y="236.74335"
       rx="3.9854658"
       ry="2.5287943" />
    <text
       xml:space="preserve"
       style="font-style:normal;font-weight:normal;font-size:40px;line-height:125%;font-family:sans-serif;letter-spacing:0px;word-spacing:0px;fill:#000000;fill-opacity:1;stroke:none;stroke-width:1px;stroke-linecap:butt;stroke-linejoin:miter;stroke-opacity:1"
       x="496.24359"
       y="314.50641"
       id="text4511"
       sodipodi:linespacing="125%"><tspan
         sodipodi:role="line"
         id="tspan4513"
         x="496.24359"
         y="314.50641"
         style="font-size:17.5px">Adaptation.xml</tspan></text>
    <g
       id="g4214"
       transform="translate(0,-60.022903)">
      <rect
         ry="0.89599967"
         rx="3.9854658"
         y="236.74335"
         x="484.31805"
         height="51.684639"
         width="155.92992"
         id="rect4509-2"
         style="opacity:1;fill:#ffeeaa;fill-opacity:1;stroke:none;stroke-width:3.54330707;stroke-miterlimit:4;stroke-dasharray:none;stroke-dashoffset:0;stroke-opacity:1" />
      <text
         sodipodi:linespacing="125%"
         id="text4511-8"
         y="267.41354"
         x="489.64264"
         style="font-style:normal;font-weight:normal;font-size:40px;line-height:125%;font-family:sans-serif;letter-spacing:0px;word-spacing:0px;fill:#000000;fill-opacity:1;stroke:none;stroke-width:1px;stroke-linecap:butt;stroke-linejoin:miter;stroke-opacity:1"
         xml:space="preserve"><tspan
           style="font-size:17.5px"
           y="267.41354"
           x="489.64264"
           id="tspan4513-9"
           sodipodi:role="line">Knowledge1.xml</tspan></text>
    </g>
    <text
       xml:space="preserve"
       style="font-style:normal;font-weight:normal;font-size:40px;line-height:125%;font-family:sans-serif;text-align:center;letter-spacing:0px;word-spacing:0px;text-anchor:middle;fill:#000000;fill-opacity:1;stroke:none;stroke-width:1px;stroke-linecap:butt;stroke-linejoin:miter;stroke-opacity:1"
       x="430.14429"
       y="383.04718"
       id="text4315-6-2"
       sodipodi:linespacing="125%"><tspan
         sodipodi:role="line"
         id="tspan4317-2-5"
         x="430.14429"
         y="383.04718"
         style="font-size:15px;text-align:center;text-anchor:middle">Block of code</tspan><tspan
         sodipodi:role="line"
         x="430.14429"
         y="401.79718"
         style="font-size:15px;text-align:center;text-anchor:middle"
         id="tspan4413-2">&quot;kernel2&quot;</tspan></text>
    <rect
       style="opacity:1;fill:#ffeeaa;fill-opacity:1;stroke:none;stroke-width:3.54330707;stroke-miterlimit:4;stroke-dasharray:none;stroke-dashoffset:0;stroke-opacity:1"
       id="rect4509-8"
       width="155.92992"
       height="51.684639"
       x="484.31805"
       y="330.97638"
       rx="3.9854658"
       ry="0.89599967" />
    <rect
       style="opacity:1;fill:#ffeeaa;fill-opacity:1;stroke:none;stroke-width:3.54330707;stroke-miterlimit:4;stroke-dasharray:none;stroke-dashoffset:0;stroke-opacity:1"
       id="rect4509-2-3"
       width="155.92992"
       height="51.684639"
       x="484.31805"
       y="390.99927"
       rx="3.9854658"
       ry="0.89599967" />
    <text
       xml:space="preserve"
       style="font-style:normal;font-weight:normal;font-size:40px;line-height:125%;font-family:sans-serif;letter-spacing:0px;word-spacing:0px;fill:#000000;fill-opacity:1;stroke:none;stroke-width:1px;stroke-linecap:butt;stroke-linejoin:miter;stroke-opacity:1"
       x="489.64264"
       y="421.66946"
       id="text4511-8-6"
       sodipodi:linespacing="125%"><tspan
         sodipodi:role="line"
         id="tspan4513-9-0"
         x="489.64264"
         y="421.66946"
         style="font-size:17.5px">Knowledge2.xml</tspan></text>
  </g>
</svg>
